{
  "facebookClientId": "159391921181596",
  "facebookClientSecret": "cc9ad24a6a123349ada67fb373067fbc",
  "stripeKey": "sk_test_WUSs2JIBldsfVBoIcGi6NuyF",
  "openExchangeRatesKey": "be10ac4602b34e66851f44d23fdc217f"
}
